Analisi dades daily
…
##Tou vs acorn consum (4.2.3)

#test de Friedman

library(dplyr)
#Agrupem daily per acorn i per tarifa
daily %>% group_by(Acorn, stdorToU) -> daily_agrupat_acorn_tou
#Mostrem les mitjanes en una taula
taula_daily_agrupat_acorn_tou<-summarise(daily_agrupat_acorn_tou, m=mean(energy_sum), sd=sd(energy_sum), n=length(energy_sum))
taula_daily_agrupat_acorn_tou

## # A tibble: 36 x 5
## # Groups:   Acorn [18]
##    Acorn   stdorToU     m    sd      n
##    <fct>   <fct>    <dbl> <dbl>  <int>
##  1 ACORN-A Std      20.1  18.1   70163
##  2 ACORN-A ToU      15.8  13.2   23883
##  3 ACORN-B Std      11.3   8.06  12002
##  4 ACORN-B ToU      14.8  10.2    2491
##  5 ACORN-C Std      12.4   8.42  68886
##  6 ACORN-C ToU      10.3   7.00  19954
##  7 ACORN-D Std      13.9  12.9  140979
##  8 ACORN-D ToU      12.8  11.3   48359
##  9 ACORN-E Std      10.6  10.6  801926
## 10 ACORN-E ToU       9.36  8.59 222572
## # ... with 26 more rows
…
###Acorn segons estacio

#Creem variable
daily$ae<-paste(daily$Acorn,daily$season)
daily$ae<-as.factor(daily$ae)

library(ggplot2)
#Agrupem daily per acorn i per estacio
daily %>% group_by(Acorn, season) -> daily_agrupat_acorn_season
#Mostrem les mitjanes en una taula
taula_daily_agrupat_acorn_season<-summarise(daily_agrupat_acorn_season, m=mean(energy_sum), sd=sd(energy_sum), n=length(energy_sum))
taula_daily_agrupat_acorn_season

## # A tibble: 72 x 5
## # Groups:   Acorn [18]
##    Acorn   season     m    sd     n
##    <fct>   <fct>  <dbl> <dbl> <int>
##  1 ACORN-A autumn 20.3  17.8  26509
##  2 ACORN-A spring 17.6  16.2  19402
##  3 ACORN-A summer 15.5  13.7  23349
##  4 ACORN-A winter 22.0  19.1  24786
##  5 ACORN-B autumn 13.2   9.07  4180
##  6 ACORN-B spring 10.6   7.37  2938
##  7 ACORN-B summer  9.51  5.89  3441
##  8 ACORN-B winter 13.7  10.0   3934
##  9 ACORN-C autumn 12.6   8.22 25471
## 10 ACORN-C spring 10.9   7.20 17866
## # ... with 62 more rows
…
